media,url
qiita,https://qiita.com/tags/k3s/feed.atom
hatena,https://b.hatena.ne.jp/search/text?q=k3s&users=1&mode=rss
zenn,https://zenn.dev/topics/k3s/feed
medium,https://medium.com/feed/tag/k3s
GoogleNews,https://news.google.com/atom/search?ie=UTF-8&oe=UTF-8&q=k3s&hl=ja&gl=JP&ceid=JP:ja
dev.to,https://dev.to/feed/tag/k3s
stackOverflow,https://stackoverflow.com/feeds/tag?tagnames=k3s&sort=newest
slideshare,http://www.slideshare.net/rss/tag/k3s
note,https://note.com/hashtag/k3s/rss
reddit,https://www.reddit.com/r/k3s/
queryfeed,https://queryfeed.net/tw?q=k3s
GoogleAlert,https://www.google.co.jp/alerts/feeds/11666000284305127907/7720190228460268628
