media,url
qiita,https://qiita.com/tags/notion/feed.atom
hatena,https://b.hatena.ne.jp/search/text?q=notion&users=1&mode=rss
zenn,https://zenn.dev/topics/notion/feed
medium,https://medium.com/feed/tag/notion
GoogleNews,https://news.google.com/atom/search?ie=UTF-8&oe=UTF-8&q=notion&hl=ja&gl=JP&ceid=JP:ja
dev.to,https://dev.to/feed/tag/notion
stackOverflow,https://stackoverflow.com/feeds/tag?tagnames=notion&sort=newest
slideshare,http://www.slideshare.net/rss/tag/notion
note,https://note.com/hashtag/notion/rss
reddit,https://www.reddit.com/r/notion/