media,url
qiita,https://qiita.com/tags/postman/feed.atom
hatena,https://b.hatena.ne.jp/search/text?q=postman&users=1&mode=rss
zenn,https://zenn.dev/topics/postman/feed
medium,https://medium.com/feed/tag/postman
dev.to,https://dev.to/feed/tag/postman
slideshare,http://www.slideshare.net/rss/tag/postman
note,https://note.com/hashtag/postman/rss
qiita-newman,https://qiita.com/tags/newman/feed.atom
hatena-newman,https://b.hatena.ne.jp/search/text?q=newman&users=1&mode=rss
zenn-newman,https://zenn.dev/topics/newman/feed
medium-newman,https://medium.com/feed/tag/newman
dev.to-newman,https://dev.to/feed/tag/newman
stackOverflow-newman,https://stackoverflow.com/feeds/tag?tagnames=newman&sort=newest
slideshare-newman,http://www.slideshare.net/rss/tag/newman
