media,url
qiita,https://qiita.com/tags/redis/feed.atom
hatena,https://b.hatena.ne.jp/search/text?q=redis&users=1&mode=rss
zenn,https://zenn.dev/topics/redis/feed
medium,https://medium.com/feed/tag/redis
dev.to,https://dev.to/feed/tag/redis
slideshare,http://www.slideshare.net/rss/tag/redis
qiita,https://qiita.com/tags/elasticache/feed.atom
hatena,https://b.hatena.ne.jp/search/text?q=elasticache&users=1&mode=rss
zenn,https://zenn.dev/topics/elasticache/feed
medium,https://medium.com/feed/tag/elasticache
dev.to,https://dev.to/feed/tag/elasticache
slideshare,http://www.slideshare.net/rss/tag/elasticache
