media,url
qiita,https://qiita.com/tags/vercel/feed.atom
hatena,https://b.hatena.ne.jp/search/text?q=vercel&users=1&mode=rss
zenn,https://zenn.dev/topics/vercel/feed
medium,https://medium.com/feed/tag/vercel
GoogleNews,https://news.google.com/atom/search?ie=UTF-8&oe=UTF-8&q=vercel&hl=ja&gl=JP&ceid=JP:ja
dev.to,https://dev.to/feed/tag/vercel
stackOverflow,https://stackoverflow.com/feeds/tag?tagnames=vercel&sort=newest
slideshare,http://www.slideshare.net/rss/tag/vercel
note,https://note.com/hashtag/vercel/rss
reddit,https://www.reddit.com/r/vercel/
GoogleAlert,https://www.google.co.jp/alerts/feeds/11666000284305127907/17568904282003207229